%YAML 1.1
%TAG !u! tag:unity3d.com,2011:
--- !u!74 &7400000
AnimationClip:
  m_ObjectHideFlags: 0
  m_CorrespondingSourceObject: {fileID: 0}
  m_PrefabInstance: {fileID: 0}
  m_PrefabAsset: {fileID: 0}
  m_Name: Rhino_Dead
  serializedVersion: 6
  m_Legacy: 0
  m_Compressed: 0
  m_UseHighQualityCurve: 1
  m_RotationCurves: []
  m_CompressedRotationCurves: []
  m_EulerCurves: []
  m_PositionCurves: []
  m_ScaleCurves: []
  m_FloatCurves:
  - curve:
      serializedVersion: 2
      m_Curve:
      - serializedVersion: 3
        time: 0
        value: 0
        inSlope: Infinity
        outSlope: Infinity
        tangentMode: 103
        weightedMode: 0
        inWeight: 0
        outWeight: 0
      - serializedVersion: 3
        time: 2.6
        value: 1
        inSlope: Infinity
        outSlope: Infinity
        tangentMode: 103
        weightedMode: 0
        inWeight: 0
        outWeight: 0
      m_PreInfinity: 2
      m_PostInfinity: 2
      m_RotationOrder: 4
    attribute: m_Enabled
    path: 
    classID: 114
    script: {fileID: 11500000, guid: f228269269fa28845b67e35dd4defaf2, type: 3}
  - curve:
      serializedVersion: 2
      m_Curve:
      - serializedVersion: 3
        time: 0
        value: 0
        inSlope: Infinity
        outSlope: Infinity
        tangentMode: 103
        weightedMode: 0
        inWeight: 0
        outWeight: 0
      - serializedVersion: 3
        time: 2.6
        value: 1
        inSlope: Infinity
        outSlope: Infinity
        tangentMode: 103
        weightedMode: 0
        inWeight: 0
        outWeight: 0
      m_PreInfinity: 2
      m_PostInfinity: 2
      m_RotationOrder: 4
    attribute: m_Simulated
    path: 
    classID: 50
    script: {fileID: 0}
  m_PPtrCurves:
  - curve:
    - time: 0
      value: {fileID: 2439156637083800784, guid: 0d45a0d8b949d0a4e9eafdc24f22ef64,
        type: 3}
    - time: 0.2
      value: {fileID: 5977564812290476861, guid: 0d45a0d8b949d0a4e9eafdc24f22ef64,
        type: 3}
    - time: 0.4
      value: {fileID: -4919157991825847783, guid: 0d45a0d8b949d0a4e9eafdc24f22ef64,
        type: 3}
    - time: 1.6
      value: {fileID: -4919157991825847783, guid: 0d45a0d8b949d0a4e9eafdc24f22ef64,
        type: 3}
    - time: 1.8
      value: {fileID: 5977564812290476861, guid: 0d45a0d8b949d0a4e9eafdc24f22ef64,
        type: 3}
    - time: 2
      value: {fileID: 2439156637083800784, guid: 0d45a0d8b949d0a4e9eafdc24f22ef64,
        type: 3}
    - time: 2.2
      value: {fileID: 8655131874898858446, guid: e3531be27cb827743bac8ea66dae5bfd,
        type: 3}
    - time: 2.4
      value: {fileID: -1075854790282143660, guid: e3531be27cb827743bac8ea66dae5bfd,
        type: 3}
    - time: 2.6
      value: {fileID: 2439156637083800784, guid: 0d45a0d8b949d0a4e9eafdc24f22ef64,
        type: 3}
    attribute: m_Sprite
    path: 
    classID: 212
    script: {fileID: 0}
  m_SampleRate: 5
  m_WrapMode: 0
  m_Bounds:
    m_Center: {x: 0, y: 0, z: 0}
    m_Extent: {x: 0, y: 0, z: 0}
  m_ClipBindingConstant:
    genericBindings:
    - serializedVersion: 2
      path: 0
      attribute: 3305885265
      script: {fileID: 11500000, guid: f228269269fa28845b67e35dd4defaf2, type: 3}
      typeID: 114
      customType: 24
      isPPtrCurve: 0
    - serializedVersion: 2
      path: 0
      attribute: 1406677095
      script: {fileID: 0}
      typeID: 50
      customType: 0
      isPPtrCurve: 0
    - serializedVersion: 2
      path: 0
      attribute: 0
      script: {fileID: 0}
      typeID: 212
      customType: 23
      isPPtrCurve: 1
    pptrCurveMapping:
    - {fileID: 2439156637083800784, guid: 0d45a0d8b949d0a4e9eafdc24f22ef64, type: 3}
    - {fileID: 5977564812290476861, guid: 0d45a0d8b949d0a4e9eafdc24f22ef64, type: 3}
    - {fileID: -4919157991825847783, guid: 0d45a0d8b949d0a4e9eafdc24f22ef64, type: 3}
    - {fileID: -4919157991825847783, guid: 0d45a0d8b949d0a4e9eafdc24f22ef64, type: 3}
    - {fileID: 5977564812290476861, guid: 0d45a0d8b949d0a4e9eafdc24f22ef64, type: 3}
    - {fileID: 2439156637083800784, guid: 0d45a0d8b949d0a4e9eafdc24f22ef64, type: 3}
    - {fileID: 8655131874898858446, guid: e3531be27cb827743bac8ea66dae5bfd, type: 3}
    - {fileID: -1075854790282143660, guid: e3531be27cb827743bac8ea66dae5bfd, type: 3}
    - {fileID: 2439156637083800784, guid: 0d45a0d8b949d0a4e9eafdc24f22ef64, type: 3}
  m_AnimationClipSettings:
    serializedVersion: 2
    m_AdditiveReferencePoseClip: {fileID: 0}
    m_AdditiveReferencePoseTime: 0
    m_StartTime: 0
    m_StopTime: 2.8
    m_OrientationOffsetY: 0
    m_Level: 0
    m_CycleOffset: 0
    m_HasAdditiveReferencePose: 0
    m_LoopTime: 1
    m_LoopBlend: 0
    m_LoopBlendOrientation: 0
    m_LoopBlendPositionY: 0
    m_LoopBlendPositionXZ: 0
    m_KeepOriginalOrientation: 0
    m_KeepOriginalPositionY: 1
    m_KeepOriginalPositionXZ: 0
    m_HeightFromFeet: 0
    m_Mirror: 0
  m_EditorCurves:
  - curve:
      serializedVersion: 2
      m_Curve:
      - serializedVersion: 3
        time: 0
        value: 0
        inSlope: Infinity
        outSlope: Infinity
        tangentMode: 103
        weightedMode: 0
        inWeight: 0
        outWeight: 0
      - serializedVersion: 3
        time: 2.6
        value: 1
        inSlope: Infinity
        outSlope: Infinity
        tangentMode: 103
        weightedMode: 0
        inWeight: 0
        outWeight: 0
      m_PreInfinity: 2
      m_PostInfinity: 2
      m_RotationOrder: 4
    attribute: m_Enabled
    path: 
    classID: 114
    script: {fileID: 11500000, guid: f228269269fa28845b67e35dd4defaf2, type: 3}
  - curve:
      serializedVersion: 2
      m_Curve:
      - serializedVersion: 3
        time: 0
        value: 0
        inSlope: Infinity
        outSlope: Infinity
        tangentMode: 103
        weightedMode: 0
        inWeight: 0
        outWeight: 0
      - serializedVersion: 3
        time: 2.6
        value: 1
        inSlope: Infinity
        outSlope: Infinity
        tangentMode: 103
        weightedMode: 0
        inWeight: 0
        outWeight: 0
      m_PreInfinity: 2
      m_PostInfinity: 2
      m_RotationOrder: 4
    attribute: m_Simulated
    path: 
    classID: 50
    script: {fileID: 0}
  m_EulerEditorCurves: []
  m_HasGenericRootTransform: 0
  m_HasMotionFloatCurves: 0
  m_Events: []
