%YAML 1.1
%TAG !u! tag:unity3d.com,2011:
--- !u!74 &7400000
AnimationClip:
  m_ObjectHideFlags: 0
  m_CorrespondingSourceObject: {fileID: 0}
  m_PrefabInstance: {fileID: 0}
  m_PrefabAsset: {fileID: 0}
  m_Name: Player_Hurt
  serializedVersion: 6
  m_Legacy: 0
  m_Compressed: 0
  m_UseHighQualityCurve: 1
  m_RotationCurves: []
  m_CompressedRotationCurves: []
  m_EulerCurves: []
  m_PositionCurves: []
  m_ScaleCurves: []
  m_FloatCurves: []
  m_PPtrCurves:
  - curve:
    - time: 0
      value: {fileID: 21300000, guid: 011441e7e18902e4c9f2519598ae1b31, type: 3}
    - time: 0.033333335
      value: {fileID: 21300000, guid: 011441e7e18902e4c9f2519598ae1b31, type: 3}
    - time: 0.06666667
      value: {fileID: 21300000, guid: 011441e7e18902e4c9f2519598ae1b31, type: 3}
    - time: 0.1
      value: {fileID: -4801923697170587870, guid: be1a5bd13766ec048bab6f4c578baa0f,
        type: 3}
    - time: 0.13333334
      value: {fileID: -8008818501793099674, guid: be1a5bd13766ec048bab6f4c578baa0f,
        type: 3}
    - time: 0.16666667
      value: {fileID: -5647853031727683852, guid: be1a5bd13766ec048bab6f4c578baa0f,
        type: 3}
    - time: 0.2
      value: {fileID: 6868876828740441722, guid: be1a5bd13766ec048bab6f4c578baa0f,
        type: 3}
    - time: 0.23333333
      value: {fileID: -3443555461527096104, guid: be1a5bd13766ec048bab6f4c578baa0f,
        type: 3}
    - time: 0.26666668
      value: {fileID: 2831489644526101201, guid: be1a5bd13766ec048bab6f4c578baa0f,
        type: 3}
    attribute: m_Sprite
    path: 
    classID: 212
    script: {fileID: 0}
  m_SampleRate: 30
  m_WrapMode: 0
  m_Bounds:
    m_Center: {x: 0, y: 0, z: 0}
    m_Extent: {x: 0, y: 0, z: 0}
  m_ClipBindingConstant:
    genericBindings:
    - serializedVersion: 2
      path: 0
      attribute: 0
      script: {fileID: 0}
      typeID: 212
      customType: 23
      isPPtrCurve: 1
    pptrCurveMapping:
    - {fileID: 21300000, guid: 011441e7e18902e4c9f2519598ae1b31, type: 3}
    - {fileID: 21300000, guid: 011441e7e18902e4c9f2519598ae1b31, type: 3}
    - {fileID: 21300000, guid: 011441e7e18902e4c9f2519598ae1b31, type: 3}
    - {fileID: -4801923697170587870, guid: be1a5bd13766ec048bab6f4c578baa0f, type: 3}
    - {fileID: -8008818501793099674, guid: be1a5bd13766ec048bab6f4c578baa0f, type: 3}
    - {fileID: -5647853031727683852, guid: be1a5bd13766ec048bab6f4c578baa0f, type: 3}
    - {fileID: 6868876828740441722, guid: be1a5bd13766ec048bab6f4c578baa0f, type: 3}
    - {fileID: -3443555461527096104, guid: be1a5bd13766ec048bab6f4c578baa0f, type: 3}
    - {fileID: 2831489644526101201, guid: be1a5bd13766ec048bab6f4c578baa0f, type: 3}
  m_AnimationClipSettings:
    serializedVersion: 2
    m_AdditiveReferencePoseClip: {fileID: 0}
    m_AdditiveReferencePoseTime: 0
    m_StartTime: 0
    m_StopTime: 0.3
    m_OrientationOffsetY: 0
    m_Level: 0
    m_CycleOffset: 0
    m_HasAdditiveReferencePose: 0
    m_LoopTime: 0
    m_LoopBlend: 0
    m_LoopBlendOrientation: 0
    m_LoopBlendPositionY: 0
    m_LoopBlendPositionXZ: 0
    m_KeepOriginalOrientation: 0
    m_KeepOriginalPositionY: 1
    m_KeepOriginalPositionXZ: 0
    m_HeightFromFeet: 0
    m_Mirror: 0
  m_EditorCurves: []
  m_EulerEditorCurves: []
  m_HasGenericRootTransform: 0
  m_HasMotionFloatCurves: 0
  m_Events:
  - time: 0.26666668
    functionName: ReloadScene
    data: 
    objectReferenceParameter: {fileID: 0}
    floatParameter: 0
    intParameter: 0
    messageOptions: 0
