%YAML 1.1
%TAG !u! tag:unity3d.com,2011:
--- !u!1045 &1
EditorBuildSettings:
  m_ObjectHideFlags: 0
  serializedVersion: 2
  m_Scenes:
  - enabled: 0
    path: Assets/Scenes/Menu.unity
    guid: e0c1143d80e8d7b4f9721b68e1bb47cd
  - enabled: 1
    path: Assets/Scenes/Level 1.unity
    guid: 2cda990e2423bbf4892e6590ba056729
  - enabled: 0
    path: Assets/Scenes/Level 2.unity
    guid: b3eee757de9341b4ea514d1b91a9baa6
  - enabled: 0
    path: Assets/Scenes/Level 3.unity
    guid: 2e2bc9b293e23404db054c525b90e409
  m_configObjects: {}
