%YAML 1.1
%TAG !u! tag:unity3d.com,2011:
--- !u!78 &1
TagManager:
  serializedVersion: 2
  tags:
  - Ground
  - Unkillable
  - Enemy
  - Orange
  - Melon
  - NonWallGrabbable
  - DeadZone
  - MovingPlatform
  layers:
  - Default
  - TransparentFX
  - Ignore Raycast
  - 
  - Water
  - UI
  - 
  - 
  - Ground
  - Player
  - Enemy
  - UnkillableEnemy
  - Wall
  - CameraDeadZone
  - A terrain that passes terriain
  - Camera
  - 
  - 
  - 
  - 
  - 
  - 
  - 
  - 
  - 
  - 
  - 
  - 
  - 
  - 
  - 
  - 
  m_SortingLayers:
  - name: Background
    uniqueID: 3747332937
    locked: 0
  - name: Default
    uniqueID: 0
    locked: 0
  - name: Player
    uniqueID: 255340295
    locked: 0
